{
  "project_info": {
    "project_number": "1027902586669",
    "project_id": "apprecio-1e5c8",
    "storage_bucket": "apprecio-1e5c8.appspot.com"
  },
  "client": [
    {
      "client_info": {
        "mobilesdk_app_id": "1:1027902586669:android:5d3940d8f955504fc5dda4",
        "android_client_info": {
          "package_name": "com.example.apprecio"
        }
      },
      "oauth_client": [
        {
          "client_id": "1027902586669-fmb7d99ea1ign66lqf88s5028sm1cil9.apps.googleusercontent.com",
          "client_type": 1,
          "android_info": {
            "package_name": "com.example.apprecio",
            "certificate_hash": "53ea16e9b9aaf2efe3ef6d6da6edb42fbebf4dd2"
          }
        },
        {
          "client_id": "1027902586669-ij3c4sodlobo2lpdjs7afu39d8l5hsc7.apps.googleusercontent.com",
          "client_type": 3
        }
      ],
      "api_key": [
        {
          "current_key": "AIzaSyBjAxYT74n3F0cOAW1UICE_TAdNrCGKZ9s"
        }
      ],
      "services": {
        "appinvite_service": {
          "other_platform_oauth_client": [
            {
              "client_id": "1027902586669-ij3c4sodlobo2lpdjs7afu39d8l5hsc7.apps.googleusercontent.com",
              "client_type": 3
            }
          ]
        }
      }
    }
  ],
  "configuration_version": "1"
}